src/apb_slave_dump.vcd
$date
	Sun Dec  7 17:12:03 2025
$end
$version
	QuestaSim Version 10.6c
$end
$timescale
	1ns
$end

$scope module uvm_root $end
$upscope $end

$scope module apb_slave_top $end
$var reg 1 ! PCLK $end
$var reg 1 " PRESETn $end

$scope module DUT $end
$var parameter 32 # ADDR_WIDTH $end
$var parameter 32 $ DATA_WIDTH $end
$var parameter 32 % MEM_DEPTH $end
$var parameter 32 & BYTE_WIDTH $end
$var parameter 32 ' NUM_BYTES $end
$var wire 1 ( PCLK $end
$var wire 1 ) PRESETn $end
$var wire 1 * PADDR [7] $end
$var wire 1 + PADDR [6] $end
$var wire 1 , PADDR [5] $end
$var wire 1 - PADDR [4] $end
$var wire 1 . PADDR [3] $end
$var wire 1 / PADDR [2] $end
$var wire 1 0 PADDR [1] $end
$var wire 1 1 PADDR [0] $end
$var wire 1 2 PSEL $end
$var wire 1 3 PENABLE $end
$var wire 1 4 PWRITE $end
$var wire 1 5 PWDATA [31] $end
$var wire 1 6 PWDATA [30] $end
$var wire 1 7 PWDATA [29] $end
$var wire 1 8 PWDATA [28] $end
$var wire 1 9 PWDATA [27] $end
$var wire 1 : PWDATA [26] $end
$var wire 1 ; PWDATA [25] $end
$var wire 1 < PWDATA [24] $end
$var wire 1 = PWDATA [23] $end
$var wire 1 > PWDATA [22] $end
$var wire 1 ? PWDATA [21] $end
$var wire 1 @ PWDATA [20] $end
$var wire 1 A PWDATA [19] $end
$var wire 1 B PWDATA [18] $end
$var wire 1 C PWDATA [17] $end
$var wire 1 D PWDATA [16] $end
$var wire 1 E PWDATA [15] $end
$var wire 1 F PWDATA [14] $end
$var wire 1 G PWDATA [13] $end
$var wire 1 H PWDATA [12] $end
$var wire 1 I PWDATA [11] $end
$var wire 1 J PWDATA [10] $end
$var wire 1 K PWDATA [9] $end
$var wire 1 L PWDATA [8] $end
$var wire 1 M PWDATA [7] $end
$var wire 1 N PWDATA [6] $end
$var wire 1 O PWDATA [5] $end
$var wire 1 P PWDATA [4] $end
$var wire 1 Q PWDATA [3] $end
$var wire 1 R PWDATA [2] $end
$var wire 1 S PWDATA [1] $end
$var wire 1 T PWDATA [0] $end
$var wire 1 U PSTRB [3] $end
$var wire 1 V PSTRB [2] $end
$var wire 1 W PSTRB [1] $end
$var wire 1 X PSTRB [0] $end
$var reg 32 Y PRDATA [31:0] $end
$var wire 1 Z PREADY $end
$var wire 1 [ PSLVERR $end
$var wire 1 \ transfer $end
$var wire 1 ] write_enable $end
$var wire 1 ^ read_enable $end
$var wire 1 _ addr_valid $end
$var integer 32 ` i $end
$upscope $end
$upscope $end

$scope begin uvm_pkg $end
$var parameter 32 a UVM_HDL_MAX_WIDTH $end
$var parameter 32 b UVM_STREAMBITS $end
$var parameter 32 c UVM_RADIX $end
$var parameter 32 d UVM_MACRO_NUMFLAGS $end
$var parameter 32 e UVM_DEFAULT $end
$var parameter 32 f UVM_ALL_ON $end
$var parameter 32 g UVM_FLAGS_ON $end
$var parameter 32 h UVM_FLAGS_OFF $end
$var parameter 32 i UVM_COPY $end
$var parameter 32 j UVM_NOCOPY $end
$var parameter 32 k UVM_COMPARE $end
$var parameter 32 l UVM_NOCOMPARE $end
$var parameter 32 m UVM_PRINT $end
$var parameter 32 n UVM_NOPRINT $end
$var parameter 32 o UVM_RECORD $end
$var parameter 32 p UVM_NORECORD $end
$var parameter 32 q UVM_PACK $end
$var parameter 32 r UVM_NOPACK $end
$var parameter 32 s UVM_PHYSICAL $end
$var parameter 32 t UVM_ABSTRACT $end
$var parameter 32 u UVM_READONLY $end
$var parameter 32 v UVM_NODEFPRINT $end
$var parameter 32 w UVM_MACRO_EXTRAS $end
$var parameter 32 x UVM_FLAGS $end
$var parameter 32 y UVM_UNPACK $end
$var parameter 32 z UVM_CHECK_FIELDS $end
$var parameter 32 { UVM_END_DATA_EXTRA $end
$var parameter 32 | UVM_START_FUNCS $end
$var parameter 32 } UVM_SET $end
$var parameter 32 ~ UVM_SETINT $end
$var parameter 32 !! UVM_SETOBJ $end
$var parameter 32 "! UVM_SETSTR $end
$var parameter 32 #! UVM_END_FUNCS $end
$var parameter 32 $! UVM_STR_CRC_POLYNOMIAL $end
$var parameter 32 %! UVM_STDOUT $end
$var parameter 32 &! UVM_LINE_WIDTH $end
$var parameter 32 '! UVM_NUM_LINES $end
$var parameter 32 (! UVM_SMALL_STRING $end
$var parameter 32 )! UVM_LARGE_STRING $end
$var reg 1 *! uvm_start_uvm_declarations $end
$var integer 32 +! uvm_global_random_seed $end
$var integer 32 ,! UVM_UNBOUNDED_CONNECTIONS $end

$scope function uvm_hdl_check_path $end
$var integer 32 -! uvm_hdl_check_path $end
$upscope $end

$scope function uvm_hdl_deposit $end
$var integer 32 .! uvm_hdl_deposit $end
$var reg 1024 /! value [1023:0] $end
$upscope $end

$scope function uvm_hdl_force $end
$var integer 32 0! uvm_hdl_force $end
$var reg 1024 1! value [1023:0] $end
$upscope $end

$scope task uvm_hdl_force_time $end
$var reg 1024 2! value [1023:0] $end
$var time 64 3! force_time $end
$upscope $end

$scope function uvm_hdl_release_and_read $end
$var integer 32 4! uvm_hdl_release_and_read $end
$var reg 1024 5! value [1023:0] $end
$upscope $end

$scope function uvm_hdl_release $end
$var integer 32 6! uvm_hdl_release $end
$upscope $end

$scope function uvm_hdl_read $end
$var integer 32 7! uvm_hdl_read $end
$var reg 1024 8! value [1023:0] $end
$upscope $end

$scope function uvm_dpi_get_next_arg_c $end
$upscope $end

$scope function uvm_dpi_get_tool_name_c $end
$upscope $end

$scope function uvm_dpi_get_tool_version_c $end
$upscope $end

$scope function uvm_dpi_get_next_arg $end
$upscope $end

$scope function uvm_dpi_get_tool_name $end
$upscope $end

$scope function uvm_dpi_get_tool_version $end
$upscope $end

$scope function uvm_dpi_regcomp $end
$upscope $end

$scope function uvm_dpi_regexec $end
$var integer 32 9! uvm_dpi_regexec $end
$upscope $end

$scope function uvm_dpi_regfree $end
$upscope $end

$scope function uvm_re_match $end
$var integer 32 :! uvm_re_match $end
$upscope $end

$scope function uvm_dump_re_cache $end
$upscope $end

$scope function uvm_glob_to_re $end
$upscope $end

$scope function uvm_revision_string $end
$upscope $end

$scope function uvm_radix_to_string $end
$var integer 32 ;! radix $end
$upscope $end

$scope function uvm_instance_scope $end
$var reg 8 <! c [7:0] $end
$var integer 32 =! pos $end
$upscope $end

$scope function uvm_oneway_hash $end
$var integer 32 >! uvm_oneway_hash $end
$var integer 32 ?! seed $end
$var reg 1 @! msb $end
$var reg 8 A! current_byte [7:0] $end
$var reg 32 B! crc1 [31:0] $end
$upscope $end

$scope function uvm_create_random_seed $end
$var integer 32 C! uvm_create_random_seed $end
$upscope $end

$scope function uvm_object_value_str $end
$upscope $end

$scope function uvm_leaf_scope $end
$var reg 8 D! scope_separator [7:0] $end
$var reg 8 E! bracket_match [7:0] $end
$var integer 32 F! pos $end
$var integer 32 G! bmatches $end
$upscope $end

$scope function uvm_vector_to_string $end
$var reg 4096 H! value [4095:0] $end
$var integer 32 I! size $end
$var integer 32 J! radix $end
$upscope $end

$scope function uvm_get_array_index_int $end
$var integer 32 K! uvm_get_array_index_int $end
$var reg 1 L! is_wildcard $end
$var integer 32 M! i $end
$upscope $end

$scope function uvm_get_array_index_string $end
$var reg 1 N! is_wildcard $end
$var integer 32 O! i $end
$upscope $end

$scope function uvm_is_array $end
$var reg 1 P! uvm_is_array $end
$upscope $end

$scope function uvm_has_wildcard $end
$upscope $end

$scope task run_test $end
$upscope $end

$scope function global_stop_request $end
$upscope $end

$scope function set_global_timeout $end
$var time 64 Q! timeout $end
$var reg 1 R! overridable $end
$upscope $end

$scope function set_global_stop_timeout $end
$var time 64 S! timeout $end
$upscope $end

$scope function uvm_report_enabled $end
$var reg 1 T! uvm_report_enabled $end
$var integer 32 U! verbosity $end
$var reg 2 V! severity [1:0] $end
$upscope $end

$scope function uvm_report $end
$var reg 2 W! severity [1:0] $end
$var integer 32 X! verbosity $end
$var integer 32 Y! line $end
$upscope $end

$scope function uvm_report_info $end
$var integer 32 Z! verbosity $end
$var integer 32 [! line $end
$upscope $end

$scope function uvm_report_warning $end
$var integer 32 \! verbosity $end
$var integer 32 ]! line $end
$upscope $end

$scope function uvm_report_error $end
$var integer 32 ^! verbosity $end
$var integer 32 _! line $end
$upscope $end

$scope function uvm_report_fatal $end
$var integer 32 `! verbosity $end
$var integer 32 a! line $end
$upscope $end

$scope function uvm_string_to_severity $end
$var reg 1 b! uvm_string_to_severity $end
$var reg 2 c! sev [1:0] $end
$upscope $end

$scope function uvm_string_to_action $end
$upscope $end

$scope function set_config_int $end
$var reg 4096 d! value [4095:0] $end
$upscope $end

$scope function set_config_object $end
$var reg 1 e! clone $end
$upscope $end

$scope function set_config_string $end
$upscope $end

$scope function uvm_is_match $end
$var reg 1 f! uvm_is_match $end
$upscope $end

$scope function uvm_string_to_bits $end
$var reg 115200 g! uvm_string_to_bits [115199:0] $end
$upscope $end

$scope function uvm_bits_to_string $end
$var reg 115200 h! str [115199:0] $end
$upscope $end

$scope task uvm_wait_for_nba_region $end
$var integer 32 i! nba $end
$var integer 32 j! next_nba $end
$upscope $end

$scope function uvm_split_string $end
$upscope $end

$scope function uvm_hdl_concat2string $end
$upscope $end
$upscope $end

$scope begin apb_slave_package $end
$upscope $end

$scope begin testbench_sv_unit $end
$upscope $end

$scope begin std $end
$upscope $end

$scope begin questa_uvm_pkg $end
$upscope $end
$enddefinitions $end
#0
$dumpvars
0!
0"
b0 Y
0N!
0P!
0b!
b0 c!
bx g!
bx h!
bx /!
bx 1!
bx 2!
bx 5!
bx 8!
1*!
0@!
b1110001 A!
b1101110010000110111001010000100 B!
b1 H!
0L!
0R!
0T!
b0 V!
b0 W!
bx d!
0e!
0f!
b1000 #
b100000 $
b100000000 %
b1000 &
b100 '
b10000000000 a
b1000000000000 b
b1111000000000000000000000000 c
b10001 d
b10101010101 e
b101010101 f
b101010101 g
b0 h
b1 i
b10 j
b100 k
b1000 l
b10000 m
b100000 n
b1000000 o
b10000000 p
b100000000 q
b1000000000 r
b10000000000000 s
b100000000000000 t
b1000000000000000 u
b10000000000000000 v
b100000000000000000 w
b100000000000000001 x
b100000000000000010 y
b100000000000000011 z
b100000000000000100 {
b100000000000000101 |
b100000000000000110 }
b100000000000000110 ~
b100000000000000111 !!
b100000000000001000 "!
b100000000000001000 #!
b100110000010001110110110110 $!
b1 %!
b1111000 &!
b1111000 '!
b1110111111 (!
b11100000111111111 )!
b100000000 `
b0 ;!
b101110 D!
b0 E!
b10100 F!
b11111111111111111111111111111111 G!
b0 O!
b0 -!
b0 .!
b0 0!
b0 4!
b0 6!
b0 7!
b1 9!
b0 :!
b1101001011000001111100000011110 +!
b101110 <!
b111 =!
b11100100111011101011010010101111 >!
b1101001011000001111100000011110 ?!
b11000101101000010010111100000001 C!
b100000 I!
b10000000000000000000000000 J!
b0 K!
b0 M!
b111110100 U!
b0 X!
b0 Y!
b11001000 Z!
b11011001 [!
b0 \!
b0 ]!
b0 ^!
b0 _!
b0 `!
b0 a!
b100100 i!
b100100 j!
b11111111111111111111111111111111 ,!
bx 3!
bx Q!
bx S!
x\
x]
x^
x_
0(
0)
x1
x0
x/
x.
x-
x,
x+
x*
x2
x3
x4
xT
xS
xR
xQ
xP
xO
xN
xM
xL
xK
xJ
xI
xH
xG
xF
xE
xD
xC
xB
xA
x@
x?
x>
x=
x<
x;
x:
x9
x8
x7
x6
x5
xX
xW
xV
xU
1Z
x[
$end
#5
1!
1(
b0 `
b1 `
b10 `
b11 `
b100 `
b101 `
b110 `
b111 `
b1000 `
b1001 `
b1010 `
b1011 `
b1100 `
b1101 `
b1110 `
b1111 `
b10000 `
b10001 `
b10010 `
b10011 `
b10100 `
b10101 `
b10110 `
b10111 `
b11000 `
b11001 `
b11010 `
b11011 `
b11100 `
b11101 `
b11110 `
b11111 `
b100000 `
b100001 `
b100010 `
b100011 `
b100100 `
b100101 `
b100110 `
b100111 `
b101000 `
b101001 `
b101010 `
b101011 `
b101100 `
b101101 `
b101110 `
b101111 `
b110000 `
b110001 `
b110010 `
b110011 `
b110100 `
b110101 `
b110110 `
b110111 `
b111000 `
b111001 `
b111010 `
b111011 `
b111100 `
b111101 `
b111110 `
b111111 `
b1000000 `
b1000001 `
b1000010 `
b1000011 `
b1000100 `
b1000101 `
b1000110 `
b1000111 `
b1001000 `
b1001001 `
b1001010 `
b1001011 `
b1001100 `
b1001101 `
b1001110 `
b1001111 `
b1010000 `
b1010001 `
b1010010 `
b1010011 `
b1010100 `
b1010101 `
b1010110 `
b1010111 `
b1011000 `
b1011001 `
b1011010 `
b1011011 `
b1011100 `
b1011101 `
b1011110 `
b1011111 `
b1100000 `
b1100001 `
b1100010 `
b1100011 `
b1100100 `
b1100101 `
b1100110 `
b1100111 `
b1101000 `
b1101001 `
b1101010 `
b1101011 `
b1101100 `
b1101101 `
b1101110 `
b1101111 `
b1110000 `
b1110001 `
b1110010 `
b1110011 `
b1110100 `
b1110101 `
b1110110 `
b1110111 `
b1111000 `
b1111001 `
b1111010 `
b1111011 `
b1111100 `
b1111101 `
b1111110 `
b1111111 `
b10000000 `
b10000001 `
b10000010 `
b10000011 `
b10000100 `
b10000101 `
b10000110 `
b10000111 `
b10001000 `
b10001001 `
b10001010 `
b10001011 `
b10001100 `
b10001101 `
b10001110 `
b10001111 `
b10010000 `
b10010001 `
b10010010 `
b10010011 `
b10010100 `
b10010101 `
b10010110 `
b10010111 `
b10011000 `
b10011001 `
b10011010 `
b10011011 `
b10011100 `
b10011101 `
b10011110 `
b10011111 `
b10100000 `
b10100001 `
b10100010 `
b10100011 `
b10100100 `
b10100101 `
b10100110 `
b10100111 `
b10101000 `
b10101001 `
b10101010 `
b10101011 `
b10101100 `
b10101101 `
b10101110 `
b10101111 `
b10110000 `
b10110001 `
b10110010 `
b10110011 `
b10110100 `
b10110101 `
b10110110 `
b10110111 `
b10111000 `
b10111001 `
b10111010 `
b10111011 `
b10111100 `
b10111101 `
b10111110 `
b10111111 `
b11000000 `
b11000001 `
b11000010 `
b11000011 `
b11000100 `
b11000101 `
b11000110 `
b11000111 `
b11001000 `
b11001001 `
b11001010 `
b11001011 `
b11001100 `
b11001101 `
b11001110 `
b11001111 `
b11010000 `
b11010001 `
b11010010 `
b11010011 `
b11010100 `
b11010101 `
b11010110 `
b11010111 `
b11011000 `
b11011001 `
b11011010 `
b11011011 `
b11011100 `
b11011101 `
b11011110 `
b11011111 `
b11100000 `
b11100001 `
b11100010 `
b11100011 `
b11100100 `
b11100101 `
b11100110 `
b11100111 `
b11101000 `
b11101001 `
b11101010 `
b11101011 `
b11101100 `
b11101101 `
b11101110 `
b11101111 `
b11110000 `
b11110001 `
b11110010 `
b11110011 `
b11110100 `
b11110101 `
b11110110 `
b11110111 `
b11111000 `
b11111001 `
b11111010 `
b11111011 `
b11111100 `
b11111101 `
b11111110 `
b11111111 `
b100000000 `
14
1X
1W
1V
1U
0T
1S
0R
1Q
0P
1O
0N
0M
1L
1K
1J
0I
1H
0G
0F
1E
1D
0C
0B
1A
1@
0?
1>
0=
0<
1;
0:
09
08
17
06
05
11
10
0/
0.
1-
0,
1+
1*
12
03
0\
0^
0]
0[
1_
#10
0!
0(
#15
1!
1(
b0 `
b1 `
b10 `
b11 `
b100 `
b101 `
b110 `
b111 `
b1000 `
b1001 `
b1010 `
b1011 `
b1100 `
b1101 `
b1110 `
b1111 `
b10000 `
b10001 `
b10010 `
b10011 `
b10100 `
b10101 `
b10110 `
b10111 `
b11000 `
b11001 `
b11010 `
b11011 `
b11100 `
b11101 `
b11110 `
b11111 `
b100000 `
b100001 `
b100010 `
b100011 `
b100100 `
b100101 `
b100110 `
b100111 `
b101000 `
b101001 `
b101010 `
b101011 `
b101100 `
b101101 `
b101110 `
b101111 `
b110000 `
b110001 `
b110010 `
b110011 `
b110100 `
b110101 `
b110110 `
b110111 `
b111000 `
b111001 `
b111010 `
b111011 `
b111100 `
b111101 `
b111110 `
b111111 `
b1000000 `
b1000001 `
b1000010 `
b1000011 `
b1000100 `
b1000101 `
b1000110 `
b1000111 `
b1001000 `
b1001001 `
b1001010 `
b1001011 `
b1001100 `
b1001101 `
b1001110 `
b1001111 `
b1010000 `
b1010001 `
b1010010 `
b1010011 `
b1010100 `
b1010101 `
b1010110 `
b1010111 `
b1011000 `
b1011001 `
b1011010 `
b1011011 `
b1011100 `
b1011101 `
b1011110 `
b1011111 `
b1100000 `
b1100001 `
b1100010 `
b1100011 `
b1100100 `
b1100101 `
b1100110 `
b1100111 `
b1101000 `
b1101001 `
b1101010 `
b1101011 `
b1101100 `
b1101101 `
b1101110 `
b1101111 `
b1110000 `
b1110001 `
b1110010 `
b1110011 `
b1110100 `
b1110101 `
b1110110 `
b1110111 `
b1111000 `
b1111001 `
b1111010 `
b1111011 `
b1111100 `
b1111101 `
b1111110 `
b1111111 `
b10000000 `
b10000001 `
b10000010 `
b10000011 `
b10000100 `
b10000101 `
b10000110 `
b10000111 `
b10001000 `
b10001001 `
b10001010 `
b10001011 `
b10001100 `
b10001101 `
b10001110 `
b10001111 `
b10010000 `
b10010001 `
b10010010 `
b10010011 `
b10010100 `
b10010101 `
b10010110 `
b10010111 `
b10011000 `
b10011001 `
b10011010 `
b10011011 `
b10011100 `
b10011101 `
b10011110 `
b10011111 `
b10100000 `
b10100001 `
b10100010 `
b10100011 `
b10100100 `
b10100101 `
b10100110 `
b10100111 `
b10101000 `
b10101001 `
b10101010 `
b10101011 `
b10101100 `
b10101101 `
b10101110 `
b10101111 `
b10110000 `
b10110001 `
b10110010 `
b10110011 `
b10110100 `
b10110101 `
b10110110 `
b10110111 `
b10111000 `
b10111001 `
b10111010 `
b10111011 `
b10111100 `
b10111101 `
b10111110 `
b10111111 `
b11000000 `
b11000001 `
b11000010 `
b11000011 `
b11000100 `
b11000101 `
b11000110 `
b11000111 `
b11001000 `
b11001001 `
b11001010 `
b11001011 `
b11001100 `
b11001101 `
b11001110 `
b11001111 `
b11010000 `
b11010001 `
b11010010 `
b11010011 `
b11010100 `
b11010101 `
b11010110 `
b11010111 `
b11011000 `
b11011001 `
b11011010 `
b11011011 `
b11011100 `
b11011101 `
b11011110 `
b11011111 `
b11100000 `
b11100001 `
b11100010 `
b11100011 `
b11100100 `
b11100101 `
b11100110 `
b11100111 `
b11101000 `
b11101001 `
b11101010 `
b11101011 `
b11101100 `
b11101101 `
b11101110 `
b11101111 `
b11110000 `
b11110001 `
b11110010 `
b11110011 `
b11110100 `
b11110101 `
b11110110 `
b11110111 `
b11111000 `
b11111001 `
b11111010 `
b11111011 `
b11111100 `
b11111101 `
b11111110 `
b11111111 `
b100000000 `
#16
13
1\
1]
#20
0!
0(
#25
1!
1(
b0 `
b1 `
b10 `
b11 `
b100 `
b101 `
b110 `
b111 `
b1000 `
b1001 `
b1010 `
b1011 `
b1100 `
b1101 `
b1110 `
b1111 `
b10000 `
b10001 `
b10010 `
b10011 `
b10100 `
b10101 `
b10110 `
b10111 `
b11000 `
b11001 `
b11010 `
b11011 `
b11100 `
b11101 `
b11110 `
b11111 `
b100000 `
b100001 `
b100010 `
b100011 `
b100100 `
b100101 `
b100110 `
b100111 `
b101000 `
b101001 `
b101010 `
b101011 `
b101100 `
b101101 `
b101110 `
b101111 `
b110000 `
b110001 `
b110010 `
b110011 `
b110100 `
b110101 `
b110110 `
b110111 `
b111000 `
b111001 `
b111010 `
b111011 `
b111100 `
b111101 `
b111110 `
b111111 `
b1000000 `
b1000001 `
b1000010 `
b1000011 `
b1000100 `
b1000101 `
b1000110 `
b1000111 `
b1001000 `
b1001001 `
b1001010 `
b1001011 `
b1001100 `
b1001101 `
b1001110 `
b1001111 `
b1010000 `
b1010001 `
b1010010 `
b1010011 `
b1010100 `
b1010101 `
b1010110 `
b1010111 `
b1011000 `
b1011001 `
b1011010 `
b1011011 `
b1011100 `
b1011101 `
b1011110 `
b1011111 `
b1100000 `
b1100001 `
b1100010 `
b1100011 `
b1100100 `
b1100101 `
b1100110 `
b1100111 `
b1101000 `
b1101001 `
b1101010 `
b1101011 `
b1101100 `
b1101101 `
b1101110 `
b1101111 `
b1110000 `
b1110001 `
b1110010 `
b1110011 `
b1110100 `
b1110101 `
b1110110 `
b1110111 `
b1111000 `
b1111001 `
b1111010 `
b1111011 `
b1111100 `
b1111101 `
b1111110 `
b1111111 `
b10000000 `
b10000001 `
b10000010 `
b10000011 `
b10000100 `
b10000101 `
b10000110 `
b10000111 `
b10001000 `
b10001001 `
b10001010 `
b10001011 `
b10001100 `
b10001101 `
b10001110 `
b10001111 `
b10010000 `
b10010001 `
b10010010 `
b10010011 `
b10010100 `
b10010101 `
b10010110 `
b10010111 `
b10011000 `
b10011001 `
b10011010 `
b10011011 `
b10011100 `
b10011101 `
b10011110 `
b10011111 `
b10100000 `
b10100001 `
b10100010 `
b10100011 `
b10100100 `
b10100101 `
b10100110 `
b10100111 `
b10101000 `
b10101001 `
b10101010 `
b10101011 `
b10101100 `
b10101101 `
b10101110 `
b10101111 `
b10110000 `
b10110001 `
b10110010 `
b10110011 `
b10110100 `
b10110101 `
b10110110 `
b10110111 `
b10111000 `
b10111001 `
b10111010 `
b10111011 `
b10111100 `
b10111101 `
b10111110 `
b10111111 `
b11000000 `
b11000001 `
b11000010 `
b11000011 `
b11000100 `
b11000101 `
b11000110 `
b11000111 `
b11001000 `
b11001001 `
b11001010 `
b11001011 `
b11001100 `
b11001101 `
b11001110 `
b11001111 `
b11010000 `
b11010001 `
b11010010 `
b11010011 `
b11010100 `
b11010101 `
b11010110 `
b11010111 `
b11011000 `
b11011001 `
b11011010 `
b11011011 `
b11011100 `
b11011101 `
b11011110 `
b11011111 `
b11100000 `
b11100001 `
b11100010 `
b11100011 `
b11100100 `
b11100101 `
b11100110 `
b11100111 `
b11101000 `
b11101001 `
b11101010 `
b11101011 `
b11101100 `
b11101101 `
b11101110 `
b11101111 `
b11110000 `
b11110001 `
b11110010 `
b11110011 `
b11110100 `
b11110101 `
b11110110 `
b11110111 `
b11111000 `
b11111001 `
b11111010 `
b11111011 `
b11111100 `
b11111101 `
b11111110 `
b11111111 `
b100000000 `
#30
0!
0(
#35
1!
1(
#36
03
0\
0]
#40
0!
0(
#45
1!
1(
b0 `
b1 `
b10 `
b11 `
b100 `
b101 `
b110 `
b111 `
b1000 `
b1001 `
b1010 `
b1011 `
b1100 `
b1101 `
b1110 `
b1111 `
b10000 `
b10001 `
b10010 `
b10011 `
b10100 `
b10101 `
b10110 `
b10111 `
b11000 `
b11001 `
b11010 `
b11011 `
b11100 `
b11101 `
b11110 `
b11111 `
b100000 `
b100001 `
b100010 `
b100011 `
b100100 `
b100101 `
b100110 `
b100111 `
b101000 `
b101001 `
b101010 `
b101011 `
b101100 `
b101101 `
b101110 `
b101111 `
b110000 `
b110001 `
b110010 `
b110011 `
b110100 `
b110101 `
b110110 `
b110111 `
b111000 `
b111001 `
b111010 `
b111011 `
b111100 `
b111101 `
b111110 `
b111111 `
b1000000 `
b1000001 `
b1000010 `
b1000011 `
b1000100 `
b1000101 `
b1000110 `
b1000111 `
b1001000 `
b1001001 `
b1001010 `
b1001011 `
b1001100 `
b1001101 `
b1001110 `
b1001111 `
b1010000 `
b1010001 `
b1010010 `
b1010011 `
b1010100 `
b1010101 `
b1010110 `
b1010111 `
b1011000 `
b1011001 `
b1011010 `
b1011011 `
b1011100 `
b1011101 `
b1011110 `
b1011111 `
b1100000 `
b1100001 `
b1100010 `
b1100011 `
b1100100 `
b1100101 `
b1100110 `
b1100111 `
b1101000 `
b1101001 `
b1101010 `
b1101011 `
b1101100 `
b1101101 `
b1101110 `
b1101111 `
b1110000 `
b1110001 `
b1110010 `
b1110011 `
b1110100 `
b1110101 `
b1110110 `
b1110111 `
b1111000 `
b1111001 `
b1111010 `
b1111011 `
b1111100 `
b1111101 `
b1111110 `
b1111111 `
b10000000 `
b10000001 `
b10000010 `
b10000011 `
b10000100 `
b10000101 `
b10000110 `
b10000111 `
b10001000 `
b10001001 `
b10001010 `
b10001011 `
b10001100 `
b10001101 `
b10001110 `
b10001111 `
b10010000 `
b10010001 `
b10010010 `
b10010011 `
b10010100 `
b10010101 `
b10010110 `
b10010111 `
b10011000 `
b10011001 `
b10011010 `
b10011011 `
b10011100 `
b10011101 `
b10011110 `
b10011111 `
b10100000 `
b10100001 `
b10100010 `
b10100011 `
b10100100 `
b10100101 `
b10100110 `
b10100111 `
b10101000 `
b10101001 `
b10101010 `
b10101011 `
b10101100 `
b10101101 `
b10101110 `
b10101111 `
b10110000 `
b10110001 `
b10110010 `
b10110011 `
b10110100 `
b10110101 `
b10110110 `
b10110111 `
b10111000 `
b10111001 `
b10111010 `
b10111011 `
b10111100 `
b10111101 `
b10111110 `
b10111111 `
b11000000 `
b11000001 `
b11000010 `
b11000011 `
b11000100 `
b11000101 `
b11000110 `
b11000111 `
b11001000 `
b11001001 `
b11001010 `
b11001011 `
b11001100 `
b11001101 `
b11001110 `
b11001111 `
b11010000 `
b11010001 `
b11010010 `
b11010011 `
b11010100 `
b11010101 `
b11010110 `
b11010111 `
b11011000 `
b11011001 `
b11011010 `
b11011011 `
b11011100 `
b11011101 `
b11011110 `
b11011111 `
b11100000 `
b11100001 `
b11100010 `
b11100011 `
b11100100 `
b11100101 `
b11100110 `
b11100111 `
b11101000 `
b11101001 `
b11101010 `
b11101011 `
b11101100 `
b11101101 `
b11101110 `
b11101111 `
b11110000 `
b11110001 `
b11110010 `
b11110011 `
b11110100 `
b11110101 `
b11110110 `
b11110111 `
b11111000 `
b11111001 `
b11111010 `
b11111011 `
b11111100 `
b11111101 `
b11111110 `
b11111111 `
b100000000 `
1"
1)
#46
02
#50
0!
0(
#55
1!
1(
b100101 j!
b11100100111011101011010010110010 C!
b11100100111011101011010010110101 C!
b100101 i!
#60
0!
0(
#65
1!
1(
04
0W
0V
0U
12
#70
0!
0(
#75
1!
1(
#76
13
1\
1^
#80
0!
0(
#85
1!
1(
#90
0!
0(
#95
1!
1(
#96
03
0\
0^
#100
0!
0(
#105
1!
1(
#106
02
#110
0!
0(
#115
1!
1(
b100110 j!
b11100100111011101011010010111001 C!
b11100100111011101011010010111110 C!
b100110 i!
#120
0!
0(
#125
1!
1(
14
1W
1V
1U
1T
1N
0L
0J
0D
1B
0@
1?
0>
19
00
1/
0-
1,
0+
12
#130
0!
0(
#135
1!
1(
#136
13
1\
1]
#140
0!
0(
#145
1!
1(
b0 `
b1 `
b10 `
b11 `
b100 `
#150
0!
0(
#155
1!
1(
b0 `
b1 `
b10 `
b11 `
b100 `
#156
03
0\
0]
#160
0!
0(
#165
1!
1(
#166
02
#170
0!
0(
#175
1!
1(
b100111 j!
b11100100111011101011010011000100 C!
b11100100111011101011010011001011 C!
b100111 i!
#180
0!
0(
#185
1!
1(
04
0X
0W
0V
12
#190
0!
0(
#195
1!
1(
#196
13
1\
1^
#200
0!
0(
#205
1!
1(
b101010001011001001001001101011 Y
#210
0!
0(
#215
1!
1(
#216
03
0\
0^
#220
0!
0(
#225
1!
1(
b0 Y
#226
02
#230
0!
0(
#235
1!
1(
b101000 j!
b11100100111011101011010011010011 C!
b11100100111011101011010011011100 C!
b101000 i!
#240
0!
0(
#245
1!
1(
14
1X
1W
1V
0T
1P
0O
0N
1M
1L
1J
1I
0H
1G
1D
0B
1:
18
16
10
0/
1.
12
#250
0!
0(
#255
1!
1(
#256
13
1\
1]
#260
0!
0(
#265
1!
1(
b0 `
b1 `
b10 `
b11 `
b100 `
#270
0!
0(
#275
1!
1(
b0 `
b1 `
b10 `
b11 `
b100 `
#276
03
0\
0]
#280
0!
0(
#285
1!
1(
#286
02
#290
0!
0(
#295
1!
1(
b101001 j!
b11100100111011101011010011100110 C!
b11100100111011101011010011110001 C!
b101001 i!
#300
0!
0(
#305
1!
1(
04
0W
12
#310
0!
0(
#315
1!
1(
#316
13
1\
1^
#320
0!
0(
#325
1!
1(
b1111110001010011010111110011010 Y
#330
0!
0(
#335
1!
1(
#336
03
0\
0^
#340
0!
0(
#345
1!
1(
b0 Y
#346
02
#350
0!
0(
#355
1!
1(
b101010 j!
b11100100111011101011010011111101 C!
b11100100111011101011010100001010 C!
b101010 i!
#360
0!
0(
#365
1!
1(
14
1W
1T
0Q
0M
0I
1H
0G
0E
0D
1B
0A
1@
0?
07
06
01
1/
1-
12
#370
0!
0(
#375
1!
1(
#376
13
1\
1]
#380
0!
0(
#385
1!
1(
b0 `
b1 `
b10 `
b11 `
b100 `
#390
0!
0(
#395
1!
1(
b0 `
b1 `
b10 `
b11 `
b100 `
#396
03
0\
0]
#400
0!
0(
#405
1!
1(
#406
02
#410
0!
0(
#415
1!
1(
b101011 j!
b11100100111011101011010100011000 C!
b11100100111011101011010100100111 C!
b101011 i!
#420
0!
0(
#425
1!
1(
04
0W
0U
12
#430
0!
0(
#435
1!
1(
#436
13
1\
1^
#440
0!
0(
#445
1!
1(
b11110000101000001011100010011 Y
#450
0!
0(
#455
1!
1(
#456
03
0\
0^
#460
0!
0(
#465
1!
1(
b0 Y
#466
02
#470
0!
0(
#475
1!
1(
b101100 j!
b11100100111011101011010100110111 C!
b11100100111011101011010101001000 C!
b101100 i!
#480
0!
0(
#485
1!
1(
14
1W
1U
0S
1R
0P
1O
0L
1I
0H
1G
1F
1D
1C
1A
0:
09
08
17
16
15
11
0/
0.
0-
1+
12
#490
0!
0(
#495
1!
1(
#496
13
1\
1]
#500
0!
0(
#505
1!
1(
b0 `
b1 `
b10 `
b11 `
b100 `
#510
0!
0(
#515
1!
1(
b0 `
b1 `
b10 `
b11 `
b100 `
#516
03
0\
0]
#520
0!
0(
#525
1!
1(
#526
02
#530
0!
0(
